zero_rate	low1_rate	low2_rate	low3_rate	low4_rate	low1_max	low2_max	low3_max	low4_max	mean_reads	sd_reads	mad_reads	sample	bin_size
0.0346429198875615	0.0692748594518623	0.0608639318341532	0.0585800245959241	0.056954936753338	-1.63	-2.096	-2.574	-3.045	0.999601235806733	0.582664579316401	0.245610032014527	DHFR-UG-s3_H1	30 kb
0.0346429198875615	0.0689783907238229	0.0606113843991567	0.0584482607167955	0.0568341531974701	-1.649	-2.119	-2.591	-3.073	0.999622997118732	0.55882227296079	0.246661830941283	DHFR-UG-s3_H2	30 kb
0.0354115425158117	0.0679023190442727	0.0604027582572031	0.0582835558678848	0.0567023893183415	-1.705	-2.197	-2.685	-3.182	0.999606151210264	0.584160484081975	0.253197672566042	DHFR-UG-s3_L	30 kb
0.0342037069571328	0.061687456078707	0.0597988404778637	0.0576027758257203	0.0563510189739986	-1.72	-2.207	-2.701	-3.194	0.999605290165159	0.566268614915763	0.255558936463486	HBB-UG-100d3_H1	30 kb
0.0350601721714687	0.0617203970484891	0.0595462930428672	0.0575588545326774	0.0560325895994378	-1.786	-2.311	-2.817	-3.341	0.999599883463757	0.567372668690879	0.267534487529026	HBB-UG-100d3_H2	30 kb
0.035126054111033	0.061687456078707	0.0597109978917779	0.0575478742094167	0.0561204321855235	-1.8	-2.32	-2.841	-3.364	0.999614798722704	0.551618199910895	0.269544672111899	HBB-UG-100d3_L	30 kb
