
Currently Loaded Modules:
  1) GCCcore/.4.9.4
  2) binutils/.2.28-GCCcore-4.9.4
  3) GCC/.4.9.4-2.28
  4) numactl/.2.0.11-GCC-4.9.4-2.28
  5) hwloc/.1.11.6-GCC-4.9.4-2.28
  6) OpenMPI/2.1.0-GCC-4.9.4-2.28
  7) OpenBLAS/.0.2.19-GCC-4.9.4-2.28-LAPACK-3.7.0
  8) gompi/.4.9.4
  9) FFTW/.3.3.6-gompi-4.9.4
 10) ScaLAPACK/.2.0.2-gompi-4.9.4-OpenBLAS-0.2.19-LAPACK-3.7.0
 11) IGB-gcc/.4.9.4
 12) bzip2/1.0.6-IGB-gcc-4.9.4
 13) zlib/.1.2.11-IGB-gcc-4.9.4
 14) ncurses/.6.0-IGB-gcc-4.9.4
 15) libreadline/.6.3-IGB-gcc-4.9.4
 16) Tcl/8.6.6-IGB-gcc-4.9.4
 17) SQLite/3.17.0-IGB-gcc-4.9.4
 18) Tk/.8.6.6-IGB-gcc-4.9.4
 19) GMP/.6.1.2-IGB-gcc-4.9.4
 20) libffi/.3.2.1-IGB-gcc-4.9.4
 21) NASM/.2.12.02-IGB-gcc-4.9.4
 22) libjpeg-turbo/.1.5.1-IGB-gcc-4.9.4
 23) Szip/.2.1.1-IGB-gcc-4.9.4
 24) XZ/.5.2.3-IGB-gcc-4.9.4
 25) libxml2/2.9.4-IGB-gcc-4.9.4
 26) HDF5/1.8.18-IGB-gcc-4.9.4
 27) Python/3.6.1-IGB-gcc-4.9.4

input = /igbgroup/a-m/bzhao8/BZ-CNV2/2read-mapping/100d3_L.sr.bam
# Opening input bam file #
/igbgroup/a-m/bzhao8/BZ-CNV2/2read-mapping/100d3_L.sr.bam
# Getting alignment metrics #
mapped_reads :  45001261
number_of_chromosomes :  69
genome_size :  2731089545
# Counting number of reads in bins #
--bin size 3 kb:
mean_binned_reads = 49.43
processed_reads: 45001261
output path:
100d3_L.sr.3kb_bin.fixed.wig
100d3_L.sr.3kb_bin.var.wig
# Analysis Done #
