
Currently Loaded Modules:
  1) GCCcore/.4.9.4
  2) binutils/.2.28-GCCcore-4.9.4
  3) GCC/.4.9.4-2.28
  4) numactl/.2.0.11-GCC-4.9.4-2.28
  5) hwloc/.1.11.6-GCC-4.9.4-2.28
  6) OpenMPI/2.1.0-GCC-4.9.4-2.28
  7) OpenBLAS/.0.2.19-GCC-4.9.4-2.28-LAPACK-3.7.0
  8) gompi/.4.9.4
  9) FFTW/.3.3.6-gompi-4.9.4
 10) ScaLAPACK/.2.0.2-gompi-4.9.4-OpenBLAS-0.2.19-LAPACK-3.7.0
 11) IGB-gcc/.4.9.4
 12) tbb/.2017_U5-IGB-gcc-4.9.4
 13) Bowtie2/2.3.2-IGB-gcc-4.9.4
 14) ncurses/.6.0-IGB-gcc-4.9.4
 15) zlib/.1.2.11-IGB-gcc-4.9.4
 16) bzip2/1.0.6-IGB-gcc-4.9.4
 17) XZ/.5.2.3-IGB-gcc-4.9.4
 18) SAMtools/1.7-IGB-gcc-4.9.4


input = /igbgroup/a-m/bzhao8/BZ-CNV2/1read-cleaning/s3_L.aq.fastq
libname = s3_L
output1 = s3_L.sam
output2 = s3_L.bam
output3 = s3_L.s.bam
output4 = s3_L.sr.bam

start mapping by bowtie2, time: Tue Aug 14 16:44:50 CDT 2018
58538045 reads; of these:
  58538045 (100.00%) were unpaired; of these:
    760255 (1.30%) aligned 0 times
    42299604 (72.26%) aligned exactly 1 time
    15478186 (26.44%) aligned >1 times
98.70% overall alignment rate

mapping finished, time: Tue Aug 14 17:33:06 CDT 2018

start cleaning up by samtools, time: Tue Aug 14 17:33:06 CDT 2018
[bam_sort_core] merging from 16 files and 8 in-memory blocks...
[bam_rmdupse_core] 15631813 / 57777790 = 0.2706 in library '	'

cleaning up finished, time: Tue Aug 14 17:52:39 CDT 2018
