Settings:
  Output files: "mm10tg2.*.bt2"
  Line rate: 6 (line is 64 bytes)
  Lines per side: 1 (side is 64 bytes)
  Offset rate: 4 (one in 16)
  FTable chars: 10
  Strings: unpacked
  Max bucket size: default
  Max bucket size, sqrt multiplier: default
  Max bucket size, len divisor: 4
  Difference-cover sample period: 1024
  Endianness: little
  Actual local endianness: little
  Sanity checking: disabled
  Assertions: disabled
  Random seed: 0
  Sizeofs: void*:8, int:4, long:8, size_t:8
Input files DNA, FASTA:
  /home/a-m/bzhao8/chromFa/mm10tg/chr10.fa
  /home/a-m/bzhao8/chromFa/mm10tg/chr11.fa
  /home/a-m/bzhao8/chromFa/mm10tg/chr12.fa
  /home/a-m/bzhao8/chromFa/mm10tg/chr13.fa
  /home/a-m/bzhao8/chromFa/mm10tg/chr14.fa
  /home/a-m/bzhao8/chromFa/mm10tg/chr15.fa
  /home/a-m/bzhao8/chromFa/mm10tg/chr16.fa
  /home/a-m/bzhao8/chromFa/mm10tg/chr17.fa
  /home/a-m/bzhao8/chromFa/mm10tg/chr18.fa
  /home/a-m/bzhao8/chromFa/mm10tg/chr19.fa
  /home/a-m/bzhao8/chromFa/mm10tg/chr1.fa
  /home/a-m/bzhao8/chromFa/mm10tg/chr1_GL456210_random.fa
  /home/a-m/bzhao8/chromFa/mm10tg/chr1_GL456211_random.fa
  /home/a-m/bzhao8/chromFa/mm10tg/chr1_GL456212_random.fa
  /home/a-m/bzhao8/chromFa/mm10tg/chr1_GL456213_random.fa
  /home/a-m/bzhao8/chromFa/mm10tg/chr1_GL456221_random.fa
  /home/a-m/bzhao8/chromFa/mm10tg/chr2.fa
  /home/a-m/bzhao8/chromFa/mm10tg/chr3.fa
  /home/a-m/bzhao8/chromFa/mm10tg/chr4.fa
  /home/a-m/bzhao8/chromFa/mm10tg/chr4_GL456216_random.fa
  /home/a-m/bzhao8/chromFa/mm10tg/chr4_GL456350_random.fa
  /home/a-m/bzhao8/chromFa/mm10tg/chr4_JH584292_random.fa
  /home/a-m/bzhao8/chromFa/mm10tg/chr4_JH584293_random.fa
  /home/a-m/bzhao8/chromFa/mm10tg/chr4_JH584294_random.fa
  /home/a-m/bzhao8/chromFa/mm10tg/chr4_JH584295_random.fa
  /home/a-m/bzhao8/chromFa/mm10tg/chr5.fa
  /home/a-m/bzhao8/chromFa/mm10tg/chr5_GL456354_random.fa
  /home/a-m/bzhao8/chromFa/mm10tg/chr5_JH584296_random.fa
  /home/a-m/bzhao8/chromFa/mm10tg/chr5_JH584297_random.fa
  /home/a-m/bzhao8/chromFa/mm10tg/chr5_JH584298_random.fa
  /home/a-m/bzhao8/chromFa/mm10tg/chr5_JH584299_random.fa
  /home/a-m/bzhao8/chromFa/mm10tg/chr6.fa
  /home/a-m/bzhao8/chromFa/mm10tg/chr7.fa
  /home/a-m/bzhao8/chromFa/mm10tg/chr7_GL456219_random.fa
  /home/a-m/bzhao8/chromFa/mm10tg/chr8.fa
  /home/a-m/bzhao8/chromFa/mm10tg/chr9.fa
  /home/a-m/bzhao8/chromFa/mm10tg/chrM.fa
  /home/a-m/bzhao8/chromFa/mm10tg/chrUn_GL456239.fa
  /home/a-m/bzhao8/chromFa/mm10tg/chrUn_GL456359.fa
  /home/a-m/bzhao8/chromFa/mm10tg/chrUn_GL456360.fa
  /home/a-m/bzhao8/chromFa/mm10tg/chrUn_GL456366.fa
  /home/a-m/bzhao8/chromFa/mm10tg/chrUn_GL456367.fa
  /home/a-m/bzhao8/chromFa/mm10tg/chrUn_GL456368.fa
  /home/a-m/bzhao8/chromFa/mm10tg/chrUn_GL456370.fa
  /home/a-m/bzhao8/chromFa/mm10tg/chrUn_GL456372.fa
  /home/a-m/bzhao8/chromFa/mm10tg/chrUn_GL456378.fa
  /home/a-m/bzhao8/chromFa/mm10tg/chrUn_GL456379.fa
  /home/a-m/bzhao8/chromFa/mm10tg/chrUn_GL456381.fa
  /home/a-m/bzhao8/chromFa/mm10tg/chrUn_GL456382.fa
  /home/a-m/bzhao8/chromFa/mm10tg/chrUn_GL456383.fa
  /home/a-m/bzhao8/chromFa/mm10tg/chrUn_GL456385.fa
  /home/a-m/bzhao8/chromFa/mm10tg/chrUn_GL456387.fa
  /home/a-m/bzhao8/chromFa/mm10tg/chrUn_GL456389.fa
  /home/a-m/bzhao8/chromFa/mm10tg/chrUn_GL456390.fa
  /home/a-m/bzhao8/chromFa/mm10tg/chrUn_GL456392.fa
  /home/a-m/bzhao8/chromFa/mm10tg/chrUn_GL456393.fa
  /home/a-m/bzhao8/chromFa/mm10tg/chrUn_GL456394.fa
  /home/a-m/bzhao8/chromFa/mm10tg/chrUn_GL456396.fa
  /home/a-m/bzhao8/chromFa/mm10tg/chrUn_JH584304.fa
  /home/a-m/bzhao8/chromFa/mm10tg/chrX.fa
  /home/a-m/bzhao8/chromFa/mm10tg/chrX_GL456233_random.fa
  /home/a-m/bzhao8/chromFa/mm10tg/chrY.fa
  /home/a-m/bzhao8/chromFa/mm10tg/chrY_JH584300_random.fa
  /home/a-m/bzhao8/chromFa/mm10tg/chrY_JH584301_random.fa
  /home/a-m/bzhao8/chromFa/mm10tg/chrY_JH584302_random.fa
  /home/a-m/bzhao8/chromFa/mm10tg/chrY_JH584303_random.fa
  /home/a-m/bzhao8/chromFa/mm10tg/HBB-BAC.fa
  /home/a-m/bzhao8/chromFa/mm10tg/pBeloBAC11.fa
  /home/a-m/bzhao8/chromFa/mm10tg/UBC-GFPZeoR.fa
Building a SMALL index
Reading reference sizes
  Time reading reference sizes: 00:00:58
Calculating joined length
Writing header
Reserving space for joined string
Joining reference sequences
  Time to join reference sequences: 00:00:11
bmax according to bmaxDivN setting: 663250317
Using parameters --bmax 497437738 --dcv 1024
  Doing ahead-of-time memory usage test
  Passed!  Constructing with these parameters: --bmax 497437738 --dcv 1024
Constructing suffix-array element generator
Building DifferenceCoverSample
  Building sPrime
  Building sPrimeOrder
  V-Sorting samples
  V-Sorting samples time: 00:01:06
  Allocating rank array
  Ranking v-sort output
  Ranking v-sort output time: 00:00:16
  Invoking Larsson-Sadakane on ranks
  Invoking Larsson-Sadakane on ranks time: 00:00:31
  Sanity-checking and returning
Building samples
Reserving space for 12 sample suffixes
Generating random suffixes
QSorting 12 sample offsets, eliminating duplicates
QSorting sample offsets, eliminating duplicates time: 00:00:00
Multikey QSorting 12 samples
  (Using difference cover)
  Multikey QSorting samples time: 00:00:00
Calculating bucket sizes
Splitting and merging
  Splitting and merging time: 00:00:00
Avg bucket size: 2.653e+09 (target: 497437737)
Converting suffix-array elements to index image
Allocating ftab, absorbFtab
Entering Ebwt loop
Getting block 1 of 1
  No samples; assembling all-inclusive block
  Sorting block of length 2653001271 for bucket 1
  (Using difference cover)
  Sorting block time: 00:40:23
Returning block of 2653001272 for bucket 1
Exited Ebwt loop
fchr[A]: 0
fchr[C]: 773347708
fchr[G]: 1326038343
fchr[T]: 1878770699
fchr[$]: 2653001271
Exiting Ebwt::buildToDisk()
Returning from initFromVector
Wrote 888537375 bytes to primary EBWT file: mm10tg2.1.bt2
Wrote 663250324 bytes to secondary EBWT file: mm10tg2.2.bt2
Re-opening _in1 and _in2 as input streams
Returning from Ebwt constructor
Headers:
    len: 2653001271
    bwtLen: 2653001272
    sz: 663250318
    bwtSz: 663250318
    lineRate: 6
    offRate: 4
    offMask: 0xfffffff0
    ftabChars: 10
    eftabLen: 20
    eftabSz: 80
    ftabLen: 1048577
    ftabSz: 4194308
    offsLen: 165812580
    offsSz: 663250320
    lineSz: 64
    sideSz: 64
    sideBwtSz: 48
    sideBwtLen: 192
    numSides: 13817715
    numLines: 13817715
    ebwtTotLen: 884333760
    ebwtTotSz: 884333760
    color: 0
    reverse: 0
Total time for call to driver() for forward index: 00:49:36
Reading reference sizes
  Time reading reference sizes: 00:00:29
Calculating joined length
Writing header
Reserving space for joined string
Joining reference sequences
  Time to join reference sequences: 00:00:12
  Time to reverse reference sequence: 00:00:03
bmax according to bmaxDivN setting: 663250317
Using parameters --bmax 497437738 --dcv 1024
  Doing ahead-of-time memory usage test
  Passed!  Constructing with these parameters: --bmax 497437738 --dcv 1024
Constructing suffix-array element generator
Building DifferenceCoverSample
  Building sPrime
  Building sPrimeOrder
  V-Sorting samples
  V-Sorting samples time: 00:01:11
  Allocating rank array
  Ranking v-sort output
  Ranking v-sort output time: 00:00:16
  Invoking Larsson-Sadakane on ranks
  Invoking Larsson-Sadakane on ranks time: 00:00:34
  Sanity-checking and returning
Building samples
Reserving space for 12 sample suffixes
Generating random suffixes
QSorting 12 sample offsets, eliminating duplicates
QSorting sample offsets, eliminating duplicates time: 00:00:00
Multikey QSorting 12 samples
  (Using difference cover)
  Multikey QSorting samples time: 00:00:00
Calculating bucket sizes
Splitting and merging
  Splitting and merging time: 00:00:00
Avg bucket size: 2.653e+09 (target: 497437737)
Converting suffix-array elements to index image
Allocating ftab, absorbFtab
Entering Ebwt loop
Getting block 1 of 1
  No samples; assembling all-inclusive block
  Sorting block of length 2653001271 for bucket 1
  (Using difference cover)
  Sorting block time: 00:41:41
Returning block of 2653001272 for bucket 1
Exited Ebwt loop
fchr[A]: 0
fchr[C]: 773347708
fchr[G]: 1326038343
fchr[T]: 1878770699
fchr[$]: 2653001271
Exiting Ebwt::buildToDisk()
Returning from initFromVector
Wrote 888537375 bytes to primary EBWT file: mm10tg2.rev.1.bt2
Wrote 663250324 bytes to secondary EBWT file: mm10tg2.rev.2.bt2
Re-opening _in1 and _in2 as input streams
Returning from Ebwt constructor
Headers:
    len: 2653001271
    bwtLen: 2653001272
    sz: 663250318
    bwtSz: 663250318
    lineRate: 6
    offRate: 4
    offMask: 0xfffffff0
    ftabChars: 10
    eftabLen: 20
    eftabSz: 80
    ftabLen: 1048577
    ftabSz: 4194308
    offsLen: 165812580
    offsSz: 663250320
    lineSz: 64
    sideSz: 64
    sideBwtSz: 48
    sideBwtLen: 192
    numSides: 13817715
    numLines: 13817715
    ebwtTotLen: 884333760
    ebwtTotSz: 884333760
    color: 0
    reverse: 1
Total time for backward call to driver() for mirror index: 00:50:22
